<?xml version="1.0" encoding="utf-8"?>
<!-- Generator: Adobe Illustrator 26.0.1, SVG Export Plug-In . SVG Version: 6.00 Build 0)  -->
<svg version="1.1" id="Layer_1" xmlns="http://www.w3.org/2000/svg" xmlns:xlink="http://www.w3.org/1999/xlink" x="0px" y="0px"
	 viewBox="0 0 512 512" style="enable-background:new 0 0 512 512;" xml:space="preserve">
<style type="text/css">
	.st0{fill:#1F5938;}
</style>
<g>
	<path class="st0" d="M489,69.1H23c-12.7,0-23,10.3-23,23v272c0,12.7,10.3,23,23,23h39.5l-12.3,17.8c-7.5,11.2-4.4,26.3,6.7,33.7
		c10.9,7.3,25.6,4.6,33.3-6.1l31.4-45.4h268.7l31.4,45.4c7.8,10.9,23,13.4,33.9,5.6c10.7-7.6,13.3-22.3,6.1-33.3L449.5,387H489
		c12.7,0,23-10.3,23-23v-272C512,79.4,501.7,69.1,489,69.1L489,69.1z M78.8,424.5c-1.9,2.8-5.1,4.4-8.5,4.4
		c-5.7,0-10.3-4.6-10.3-10.3c0-2.1,0.6-4.1,1.8-5.9L79.5,387h25.1L78.8,424.5z M450.2,412.8c3.2,4.7,2.1,11.1-2.6,14.4
		c-1.7,1.2-3.8,1.8-5.9,1.8c-3.4,0-6.6-1.7-8.5-4.4L407.4,387h25.1L450.2,412.8z M498,364c0,5-4,9-9,9H23c-5,0-9-4-9-9v-272
		c0-5,4-9,9-9h466c5,0,9,4,9,9V364z"/>
	<path class="st0" d="M473,101.1H39c-3.9,0-7,3.1-7,7c0,0,0,0,0,0v240c0,3.9,3.1,7,7,7h434c3.9,0,7-3.1,7-7v-240
		C480,104.2,476.9,101.1,473,101.1C473,101.1,473,101.1,473,101.1z M466,341H46v-226h420V341z"/>
	<path class="st0" d="M165.5,191.7h29.2v79.7c0,3.9,3.1,7,7,7s7-3.1,7-7v-79.7h29.2c3.9,0,7-3.1,7-7s-3.1-7-7-7h-72.4
		c-3.9,0-7,3.1-7,7S161.6,191.7,165.5,191.7L165.5,191.7z"/>
	<path class="st0" d="M303.9,274.1c1.5,3.6,5.6,5.3,9.1,3.8c1.7-0.7,3.1-2.1,3.8-3.8l36.2-86.7c1.6-3.5,0-7.7-3.6-9.2
		s-7.7,0-9.2,3.6c0,0.1-0.1,0.2-0.1,0.3l-29.7,71.2L280.6,182c-1.5-3.6-5.6-5.3-9.2-3.8s-5.3,5.6-3.8,9.2L303.9,274.1z"/>
</g>
</svg>
